…
``` r
set.seed(600)
plotdata = tibble(
  x = rnorm(500),
  y = rnorm(500),
  greater1 = c((x + y) > 1),
  numvec = as.numeric(greater1),
  facvec = as.factor(numvec)
)

plotdata
```

    ## # A tibble: 500 x 5
    ##          x       y greater1 numvec facvec
    ##      <dbl>   <dbl> <lgl>     <dbl> <fct> 
    ##  1 -1.12    1.32   FALSE         0 0     
    ##  2  0.198  -1.35   FALSE         0 0     
    ##  3  0.645   0.468  TRUE          1 1     
    ##  4 -0.151  -0.0471 FALSE         0 0     
    ##  5 -0.0184  0.644  FALSE         0 0     
    ##  6  0.0177  0.833  FALSE         0 0     
    ##  7 -1.22    0.481  FALSE         0 0     
    ##  8 -1.65    0.815  FALSE         0 0     
    ##  9  0.0385 -0.559  FALSE         0 0     
    ## 10 -1.37    0.635  FALSE         0 0     
    ## # … with 490 more rows
…
